…
``` r
# Filter for the Americas 

  covid_america <- covid %>%
  filter(continent == "America")
  nrow(covid_america)
```

    ## [1] 48

``` r
covid_america
```

    ## # A tibble: 48 x 132
    ##       X1 geoid2 date       month   day  year elapsed date_rep   cases deaths
    ##    <dbl> <chr>  <date>     <dbl> <dbl> <dbl>   <dbl> <date>     <dbl>  <dbl>
    ##  1     1 ABW    2020-11-22    11    21  2020     326 2020-11-22    26      0
    ##  2     4 AIA    2020-11-22    11    21  2020     326 2020-11-22     0      0
    ##  3     8 ARG    2020-11-22    11    21  2020     326 2020-11-22  7143    112
    ##  4    10 ATG    2020-11-22    11    21  2020     326 2020-11-22     0      0
    ##  5    17 BES    2020-11-22    11    21  2020     326 2020-11-22     0      0
    ##  6    22 BHS    2020-11-22    11    21  2020     326 2020-11-22    28      0
    ##  7    25 BLZ    2020-11-22    11    21  2020     326 2020-11-22    54      5
    ##  8    26 BMU    2020-11-22    11    21  2020     326 2020-11-22     0      0
    ##  9    27 BOL    2020-11-22    11    21  2020     326 2020-11-22   167     15
    ## 10    28 BRA    2020-11-22    11    21  2020     326 2020-11-22 32622    376
    ## # … with 38 more rows, and 122 more variables: country <chr>,
    ## #   population_2019 <dbl>, continent <chr>,
    ## #   Cumulative_number_for_14_days_of_COVID.19_cases_per_100000 <dbl>,
    ## #   cases_cum <dbl>, deaths_cum <dbl>, deaths_cum_log <dbl>,
    ## #   deaths_cum_l7 <dbl>, deaths_cum_g7 <dbl>, region <chr>, gov_effect <dbl>,
    ## #   trade <dbl>, ineq <dbl>, gdp_pc <dbl>, pop_tot <dbl>, older_m <dbl>,
    ## #   older_f <dbl>, air_travel <dbl>, fdi <dbl>, pop_density <dbl>, urban <dbl>,
    ## #   migration_share <dbl>, oil <dbl>, soc_insur_cov <dbl>, soc_contrib <dbl>,
    ## #   soc_safety <dbl>, pop_below14_2018 <dbl>, polity <dbl>, gini <dbl>,
…
